2015/01/11 18:29:56 [trace] [system.CModule] Loading "log" application component
in E:\GitRepo\flex-training-server\index.php (13)
2015/01/11 18:29:56 [trace] [system.CModule] Loading "request" application component
in E:\GitRepo\flex-training-server\index.php (13)
2015/01/11 18:29:56 [trace] [system.CModule] Loading "urlManager" application component
in E:\GitRepo\flex-training-server\index.php (13)
2015/01/11 18:29:56 [trace] [system.base.CModule] Loading "amfGateway" module
in E:\GitRepo\flex-training-server\index.php (13)
2015/01/11 18:29:57 [trace] [system.CModule] Loading "session" application component
in E:\GitRepo\flex-training-server\protected\modules\amfGateway\components\AmfSessionAuthStorage.php (37)
in E:\GitRepo\flex-training-server\protected\modules\amfGateway\components\AmfController.php (43)
in E:\GitRepo\flex-training-server\index.php (13)
2015/01/11 18:29:57 [trace] [system.CModule] Loading "db" application component
in E:\GitRepo\flex-training-server\protected\components\ActiveRecord.php (34)
in E:\GitRepo\flex-training-server\protected\models\User.php (172)
in E:\GitRepo\flex-training-server\protected\components\UserIdentity.php (48)
2015/01/11 18:29:57 [trace] [system.db.CDbConnection] Opening DB connection
in E:\GitRepo\flex-training-server\protected\components\ActiveRecord.php (34)
in E:\GitRepo\flex-training-server\protected\models\User.php (172)
in E:\GitRepo\flex-training-server\protected\components\UserIdentity.php (48)
2015/01/11 18:29:57 [trace] [system.db.CDbCommand] Querying SQL: SHOW FULL COLUMNS FROM `f_user`
in E:\GitRepo\flex-training-server\protected\components\ActiveRecord.php (34)
in E:\GitRepo\flex-training-server\protected\models\User.php (172)
in E:\GitRepo\flex-training-server\protected\components\UserIdentity.php (48)
2015/01/11 18:29:57 [trace] [system.db.CDbCommand] Querying SQL: SHOW CREATE TABLE `f_user`
in E:\GitRepo\flex-training-server\protected\components\ActiveRecord.php (34)
in E:\GitRepo\flex-training-server\protected\models\User.php (172)
in E:\GitRepo\flex-training-server\protected\components\UserIdentity.php (48)
2015/01/11 18:29:58 [trace] [system.db.ar.CActiveRecord] User.find()
in E:\GitRepo\flex-training-server\protected\models\User.php (214)
in E:\GitRepo\flex-training-server\protected\components\UserIdentity.php (48)
in E:\GitRepo\flex-training-server\protected\modules\amfGateway\components\AmfAuthAdapter.php (33)
2015/01/11 18:29:58 [trace] [system.db.CDbCommand] Querying SQL: SELECT id, userName, displayName, email, createTime, lastLoginTime, isSuperuser, status, password, activateKey FROM `f_user` `t` WHERE LOWER(userName)=:noe OR LOWER(email)=:noe LIMIT 1
in E:\GitRepo\flex-training-server\protected\models\User.php (214)
in E:\GitRepo\flex-training-server\protected\components\UserIdentity.php (48)
in E:\GitRepo\flex-training-server\protected\modules\amfGateway\components\AmfAuthAdapter.php (33)
2015/01/11 18:29:58 [trace] [system.db.ar.CActiveRecord] User.saveAttributes()
in E:\GitRepo\flex-training-server\protected\components\UserIdentity.php (66)
in E:\GitRepo\flex-training-server\protected\modules\amfGateway\components\AmfAuthAdapter.php (33)
in E:\GitRepo\flex-training-server\protected\modules\amfGateway\vendors\Zend\Auth.php (117)
2015/01/11 18:29:58 [trace] [system.db.ar.CActiveRecord] User.updateByPk()
in E:\GitRepo\flex-training-server\protected\components\UserIdentity.php (66)
in E:\GitRepo\flex-training-server\protected\modules\amfGateway\components\AmfAuthAdapter.php (33)
in E:\GitRepo\flex-training-server\protected\modules\amfGateway\vendors\Zend\Auth.php (117)
2015/01/11 18:29:58 [trace] [system.db.CDbCommand] Executing SQL: UPDATE `f_user` SET `lastLoginTime`=:yp0 WHERE `f_user`.`id`=1
in E:\GitRepo\flex-training-server\protected\components\UserIdentity.php (66)
in E:\GitRepo\flex-training-server\protected\modules\amfGateway\components\AmfAuthAdapter.php (33)
in E:\GitRepo\flex-training-server\protected\modules\amfGateway\vendors\Zend\Auth.php (117)
2015/01/11 18:29:58 [trace] [system.CModule] Loading "user" application component
in E:\GitRepo\flex-training-server\protected\components\UserIdentity.php (89)
in E:\GitRepo\flex-training-server\protected\components\UserIdentity.php (77)
in E:\GitRepo\flex-training-server\protected\modules\amfGateway\components\AmfAuthAdapter.php (33)
2015/01/11 18:29:58 [trace] [system.CModule] Loading "cache" application component
in E:\GitRepo\flex-training-server\protected\components\UserIdentity.php (91)
in E:\GitRepo\flex-training-server\protected\components\UserIdentity.php (77)
in E:\GitRepo\flex-training-server\protected\modules\amfGateway\components\AmfAuthAdapter.php (33)
2015/01/11 18:29:58 [trace] [system.db.CDbConnection] Opening DB connection
in E:\GitRepo\flex-training-server\protected\components\UserIdentity.php (91)
in E:\GitRepo\flex-training-server\protected\components\UserIdentity.php (77)
in E:\GitRepo\flex-training-server\protected\modules\amfGateway\components\AmfAuthAdapter.php (33)
2015/01/11 18:29:58 [trace] [system.db.CDbCommand] Executing SQL: DELETE FROM YiiCache WHERE expire>0 AND expire<1420975798
in E:\GitRepo\flex-training-server\protected\components\UserIdentity.php (91)
in E:\GitRepo\flex-training-server\protected\components\UserIdentity.php (77)
in E:\GitRepo\flex-training-server\protected\modules\amfGateway\components\AmfAuthAdapter.php (33)
2015/01/11 18:29:58 [error] [system.db.CDbCommand] Error in preparing SQL: DELETE FROM YiiCache WHERE expire>0 AND expire<1420975798
in E:\GitRepo\flex-training-server\protected\components\UserIdentity.php (91)
in E:\GitRepo\flex-training-server\protected\components\UserIdentity.php (77)
in E:\GitRepo\flex-training-server\protected\modules\amfGateway\components\AmfAuthAdapter.php (33)
2015/01/11 18:29:58 [trace] [system.CModule] Loading "coreMessages" application component
in E:\GitRepo\flex-training-server\protected\components\UserIdentity.php (91)
in E:\GitRepo\flex-training-server\protected\components\UserIdentity.php (77)
in E:\GitRepo\flex-training-server\protected\modules\amfGateway\components\AmfAuthAdapter.php (33)
2015/01/11 18:29:59 [error] [system.db.CDbCommand] CDbCommand::execute() failed: CDbCommand failed to prepare the SQL statement: SQLSTATE[HY000]: General error: 1 no such table: YiiCache. The SQL statement executed was: DELETE FROM YiiCache WHERE expire>0 AND expire<1420975798.
in E:\GitRepo\flex-training-server\protected\components\UserIdentity.php (91)
in E:\GitRepo\flex-training-server\protected\components\UserIdentity.php (77)
in E:\GitRepo\flex-training-server\protected\modules\amfGateway\components\AmfAuthAdapter.php (33)
2015/01/11 18:29:59 [trace] [system.db.CDbCommand] Executing SQL: CREATE TABLE YiiCache
(
	id CHAR(128) PRIMARY KEY,
	expire INTEGER,
	value BLOB
)
in E:\GitRepo\flex-training-server\protected\components\UserIdentity.php (91)
in E:\GitRepo\flex-training-server\protected\components\UserIdentity.php (77)
in E:\GitRepo\flex-training-server\protected\modules\amfGateway\components\AmfAuthAdapter.php (33)
2015/01/11 18:29:59 [trace] [system.caching.CDbCache] Saving "loginUserTokenKey_1" to cache
in E:\GitRepo\flex-training-server\protected\components\UserIdentity.php (91)
in E:\GitRepo\flex-training-server\protected\components\UserIdentity.php (77)
in E:\GitRepo\flex-training-server\protected\modules\amfGateway\components\AmfAuthAdapter.php (33)
2015/01/11 18:29:59 [trace] [system.db.CDbCommand] Executing SQL: DELETE FROM YiiCache WHERE id='39ebda9bd8d758cbbddf8889c8cbe316'
in E:\GitRepo\flex-training-server\protected\components\UserIdentity.php (91)
in E:\GitRepo\flex-training-server\protected\components\UserIdentity.php (77)
in E:\GitRepo\flex-training-server\protected\modules\amfGateway\components\AmfAuthAdapter.php (33)
2015/01/11 18:29:59 [trace] [system.db.CDbCommand] Executing SQL: INSERT INTO YiiCache (id,expire,value) VALUES ('39ebda9bd8d758cbbddf8889c8cbe316',1421062199,:value)
in E:\GitRepo\flex-training-server\protected\components\UserIdentity.php (91)
in E:\GitRepo\flex-training-server\protected\components\UserIdentity.php (77)
in E:\GitRepo\flex-training-server\protected\modules\amfGateway\components\AmfAuthAdapter.php (33)
2015/01/11 18:29:59 [trace] [system.CModule] Loading "log" application component
in E:\GitRepo\flex-training-server\index.php (13)
2015/01/11 18:29:59 [trace] [system.CModule] Loading "request" application component
in E:\GitRepo\flex-training-server\index.php (13)
2015/01/11 18:29:59 [trace] [system.CModule] Loading "urlManager" application component
in E:\GitRepo\flex-training-server\index.php (13)
2015/01/11 18:29:59 [trace] [system.base.CModule] Loading "amfGateway" module
in E:\GitRepo\flex-training-server\index.php (13)
2015/01/11 18:29:59 [trace] [system.CModule] Loading "session" application component
in E:\GitRepo\flex-training-server\protected\modules\amfGateway\components\AmfSessionAuthStorage.php (37)
in E:\GitRepo\flex-training-server\protected\modules\amfGateway\components\AmfController.php (43)
in E:\GitRepo\flex-training-server\index.php (13)
2015/01/11 18:30:29 [trace] [system.CModule] Loading "log" application component
in E:\GitRepo\flex-training-server\index.php (13)
2015/01/11 18:30:29 [trace] [system.CModule] Loading "request" application component
in E:\GitRepo\flex-training-server\index.php (13)
2015/01/11 18:30:29 [trace] [system.CModule] Loading "urlManager" application component
in E:\GitRepo\flex-training-server\index.php (13)
2015/01/11 18:30:29 [trace] [system.base.CModule] Loading "amfGateway" module
in E:\GitRepo\flex-training-server\index.php (13)
2015/01/11 18:30:29 [trace] [system.CModule] Loading "session" application component
in E:\GitRepo\flex-training-server\protected\modules\amfGateway\components\AmfSessionAuthStorage.php (37)
in E:\GitRepo\flex-training-server\protected\modules\amfGateway\components\AmfController.php (43)
in E:\GitRepo\flex-training-server\index.php (13)
2015/01/11 18:30:29 [trace] [system.CModule] Loading "db" application component
in E:\GitRepo\flex-training-server\protected\components\ActiveRecord.php (34)
in E:\GitRepo\flex-training-server\protected\models\User.php (172)
in E:\GitRepo\flex-training-server\protected\components\UserIdentity.php (48)
2015/01/11 18:30:29 [trace] [system.db.CDbConnection] Opening DB connection
in E:\GitRepo\flex-training-server\protected\components\ActiveRecord.php (34)
in E:\GitRepo\flex-training-server\protected\models\User.php (172)
in E:\GitRepo\flex-training-server\protected\components\UserIdentity.php (48)
2015/01/11 18:30:29 [trace] [system.db.CDbCommand] Querying SQL: SHOW FULL COLUMNS FROM `f_user`
in E:\GitRepo\flex-training-server\protected\components\ActiveRecord.php (34)
in E:\GitRepo\flex-training-server\protected\models\User.php (172)
in E:\GitRepo\flex-training-server\protected\components\UserIdentity.php (48)
2015/01/11 18:30:29 [trace] [system.db.CDbCommand] Querying SQL: SHOW CREATE TABLE `f_user`
in E:\GitRepo\flex-training-server\protected\components\ActiveRecord.php (34)
in E:\GitRepo\flex-training-server\protected\models\User.php (172)
in E:\GitRepo\flex-training-server\protected\components\UserIdentity.php (48)
2015/01/11 18:30:29 [trace] [system.db.ar.CActiveRecord] User.find()
in E:\GitRepo\flex-training-server\protected\models\User.php (214)
in E:\GitRepo\flex-training-server\protected\components\UserIdentity.php (48)
in E:\GitRepo\flex-training-server\protected\modules\amfGateway\components\AmfAuthAdapter.php (33)
2015/01/11 18:30:29 [trace] [system.db.CDbCommand] Querying SQL: SELECT id, userName, displayName, email, createTime, lastLoginTime, isSuperuser, status, password, activateKey FROM `f_user` `t` WHERE LOWER(userName)=:noe OR LOWER(email)=:noe LIMIT 1
in E:\GitRepo\flex-training-server\protected\models\User.php (214)
in E:\GitRepo\flex-training-server\protected\components\UserIdentity.php (48)
in E:\GitRepo\flex-training-server\protected\modules\amfGateway\components\AmfAuthAdapter.php (33)
2015/01/11 18:30:30 [trace] [system.db.ar.CActiveRecord] User.saveAttributes()
in E:\GitRepo\flex-training-server\protected\components\UserIdentity.php (66)
in E:\GitRepo\flex-training-server\protected\modules\amfGateway\components\AmfAuthAdapter.php (33)
in E:\GitRepo\flex-training-server\protected\modules\amfGateway\vendors\Zend\Auth.php (117)
2015/01/11 18:30:30 [trace] [system.db.ar.CActiveRecord] User.updateByPk()
in E:\GitRepo\flex-training-server\protected\components\UserIdentity.php (66)
in E:\GitRepo\flex-training-server\protected\modules\amfGateway\components\AmfAuthAdapter.php (33)
in E:\GitRepo\flex-training-server\protected\modules\amfGateway\vendors\Zend\Auth.php (117)
2015/01/11 18:30:30 [trace] [system.db.CDbCommand] Executing SQL: UPDATE `f_user` SET `lastLoginTime`=:yp0 WHERE `f_user`.`id`=1
in E:\GitRepo\flex-training-server\protected\components\UserIdentity.php (66)
in E:\GitRepo\flex-training-server\protected\modules\amfGateway\components\AmfAuthAdapter.php (33)
in E:\GitRepo\flex-training-server\protected\modules\amfGateway\vendors\Zend\Auth.php (117)
2015/01/11 18:30:30 [trace] [system.CModule] Loading "user" application component
in E:\GitRepo\flex-training-server\protected\components\UserIdentity.php (89)
in E:\GitRepo\flex-training-server\protected\components\UserIdentity.php (77)
in E:\GitRepo\flex-training-server\protected\modules\amfGateway\components\AmfAuthAdapter.php (33)
2015/01/11 18:30:30 [trace] [system.CModule] Loading "cache" application component
in E:\GitRepo\flex-training-server\protected\components\UserIdentity.php (91)
in E:\GitRepo\flex-training-server\protected\components\UserIdentity.php (77)
in E:\GitRepo\flex-training-server\protected\modules\amfGateway\components\AmfAuthAdapter.php (33)
2015/01/11 18:30:30 [trace] [system.db.CDbConnection] Opening DB connection
in E:\GitRepo\flex-training-server\protected\components\UserIdentity.php (91)
in E:\GitRepo\flex-training-server\protected\components\UserIdentity.php (77)
in E:\GitRepo\flex-training-server\protected\modules\amfGateway\components\AmfAuthAdapter.php (33)
2015/01/11 18:30:30 [trace] [system.db.CDbCommand] Executing SQL: DELETE FROM YiiCache WHERE expire>0 AND expire<1420975830
in E:\GitRepo\flex-training-server\protected\components\UserIdentity.php (91)
in E:\GitRepo\flex-training-server\protected\components\UserIdentity.php (77)
in E:\GitRepo\flex-training-server\protected\modules\amfGateway\components\AmfAuthAdapter.php (33)
2015/01/11 18:30:30 [trace] [system.caching.CDbCache] Saving "loginUserTokenKey_1" to cache
in E:\GitRepo\flex-training-server\protected\components\UserIdentity.php (91)
in E:\GitRepo\flex-training-server\protected\components\UserIdentity.php (77)
in E:\GitRepo\flex-training-server\protected\modules\amfGateway\components\AmfAuthAdapter.php (33)
2015/01/11 18:30:30 [trace] [system.db.CDbCommand] Executing SQL: DELETE FROM YiiCache WHERE id='39ebda9bd8d758cbbddf8889c8cbe316'
in E:\GitRepo\flex-training-server\protected\components\UserIdentity.php (91)
in E:\GitRepo\flex-training-server\protected\components\UserIdentity.php (77)
in E:\GitRepo\flex-training-server\protected\modules\amfGateway\components\AmfAuthAdapter.php (33)
2015/01/11 18:30:30 [trace] [system.db.CDbCommand] Executing SQL: INSERT INTO YiiCache (id,expire,value) VALUES ('39ebda9bd8d758cbbddf8889c8cbe316',1421062230,:value)
in E:\GitRepo\flex-training-server\protected\components\UserIdentity.php (91)
in E:\GitRepo\flex-training-server\protected\components\UserIdentity.php (77)
in E:\GitRepo\flex-training-server\protected\modules\amfGateway\components\AmfAuthAdapter.php (33)
2015/01/11 18:30:30 [trace] [system.CModule] Loading "log" application component
in E:\GitRepo\flex-training-server\index.php (13)
2015/01/11 18:30:30 [trace] [system.CModule] Loading "request" application component
in E:\GitRepo\flex-training-server\index.php (13)
2015/01/11 18:30:30 [trace] [system.CModule] Loading "urlManager" application component
in E:\GitRepo\flex-training-server\index.php (13)
2015/01/11 18:30:30 [trace] [system.base.CModule] Loading "amfGateway" module
in E:\GitRepo\flex-training-server\index.php (13)
2015/01/11 18:30:30 [trace] [system.CModule] Loading "session" application component
in E:\GitRepo\flex-training-server\protected\modules\amfGateway\components\AmfSessionAuthStorage.php (37)
in E:\GitRepo\flex-training-server\protected\modules\amfGateway\components\AmfController.php (43)
in E:\GitRepo\flex-training-server\index.php (13)
2015/01/11 18:30:30 [trace] [system.CModule] Loading "db" application component
in E:\GitRepo\flex-training-server\protected\components\ActiveRecord.php (34)
in E:\GitRepo\flex-training-server\protected\models\Employee.php (114)
in E:\GitRepo\flex-training-server\protected\services\vo\FEmployee.php (64)
2015/01/11 18:30:30 [trace] [system.db.CDbConnection] Opening DB connection
in E:\GitRepo\flex-training-server\protected\components\ActiveRecord.php (34)
in E:\GitRepo\flex-training-server\protected\models\Employee.php (114)
in E:\GitRepo\flex-training-server\protected\services\vo\FEmployee.php (64)
2015/01/11 18:30:30 [trace] [system.db.CDbCommand] Querying SQL: SHOW FULL COLUMNS FROM `employee`
in E:\GitRepo\flex-training-server\protected\components\ActiveRecord.php (34)
in E:\GitRepo\flex-training-server\protected\models\Employee.php (114)
in E:\GitRepo\flex-training-server\protected\services\vo\FEmployee.php (64)
2015/01/11 18:30:31 [trace] [system.db.CDbCommand] Querying SQL: SHOW CREATE TABLE `employee`
in E:\GitRepo\flex-training-server\protected\components\ActiveRecord.php (34)
in E:\GitRepo\flex-training-server\protected\models\Employee.php (114)
in E:\GitRepo\flex-training-server\protected\services\vo\FEmployee.php (64)
2015/01/11 18:30:31 [trace] [system.db.ar.CActiveRecord] Employee.findByPk()
in E:\GitRepo\flex-training-server\protected\components\ValueObjectModel.php (240)
in E:\GitRepo\flex-training-server\protected\services\amf\EmployeeService.php (26)
in E:\GitRepo\flex-training-server\protected\modules\amfGateway\vendors\Zend\Server\Reflection\Function\Abstract.php (380)
2015/01/11 18:30:31 [trace] [system.db.CDbCommand] Querying SQL: SELECT * FROM `employee` `t` WHERE `t`.`id`=1 LIMIT 1
in E:\GitRepo\flex-training-server\protected\components\ValueObjectModel.php (240)
in E:\GitRepo\flex-training-server\protected\services\amf\EmployeeService.php (26)
in E:\GitRepo\flex-training-server\protected\modules\amfGateway\vendors\Zend\Server\Reflection\Function\Abstract.php (380)
